<svg xmlns="http://www.w3.org/2000/svg" width="28" height="21" fill="none" viewBox="0 0 28 21">
  <path stroke="#9E1B64" stroke-linecap="round" stroke-linejoin="round" d="m27.28 7.247-13.139 6.247L1 7.247 14.139 1 27.28 7.247Z"/>
  <path stroke="#9E1B64" stroke-linecap="round" stroke-linejoin="round" d="M22.798 9.548v6.657l-8.331 3.864-8.334-3.864V9.877M2.281 7.576v10.52"/>
</svg>
