{
    "auth": {
        "username": "bayutanmizi_qugSQh",
        "access_key": "qxi8R4b9Adbert3E45Bu"
    },
    "browsers": [
        {
            "browser": "chrome",
            "os": "Windows 10",
            "versions": [
                "latest",
                "latest-1"
            ]
        },
        {
            "browser": "firefox",
            "os": "Windows 10",
            "versions": [
                "latest",
                "latest-1"
            ]
        },
        {
            "browser": "edge",
            "os": "Windows 10",
            "versions": [
                "latest",
                "latest-1"
            ]
        },
        {
            "browser": "chrome",
            "os": "OS X Mojave",
            "versions": [
                "latest",
                "latest-1"
            ]
        },
        {
            "browser": "firefox",
            "os": "OS X Mojave",
            "versions": [
                "latest",
                "latest-1"
            ]
        },
        {
            "browser": "edge",
            "os": "OS X Mojave",
            "versions": [
                "latest",
                "latest-1"
            ]
        },
        {
            "browser": "chrome",
            "os": "OS X Catalina",
            "versions": [
                "latest",
                "latest-1"
            ]
        },
        {
            "browser": "firefox",
            "os": "OS X Catalina",
            "versions": [
                "latest",
                "latest-1"
            ]
        },
        {
            "browser": "edge",
            "os": "OS X Catalina",
            "versions": [
                "latest",
                "latest-1"
            ]
        }
    ],
    "run_settings": {
        "cypress_config_file": "./cypress.config.js",
        "project_name": "imda-revamp",
        "build_name": "build-name",
        "exclude": [],
        "parallels": "5",
        "npm_dependencies": {},
        "package_config_options": {},
        "headless": true
    },
    "connection_settings": {
        "local": false,
        "local_identifier": null,
        "local_mode": null,
        "local_config_file": null
    },
    "disable_usage_reporting": false
}