{
  "pageTitle": "IMDA Singtel and DBS launch new platform to strengthen SMEs omni-channel capabilities",
  "pageDescription": "New 99%SME platform enables retailers to access new markets and business insights, last-mile delivery options and stronger customer engagement features.",
  "breadcrumbs": [
    {
      "name": "News & Events",
      "url": "/standard-landing"
    },
    {
      "name": "Newsroom",
      "url": "/newsroom"
    },
    {
      "name": "IMDA Singtel and DBS launch new platform to strengthen SMEs omni-channel capabilities"
    }
  ],
  "pageBanner": {
    "articleDate": "14 January 2019",
    "isPublication": true,
    "color": "dark--detail",
    "readtime": "5 mins read",
    "date": "23 JAN 2023"
  },
  "tags": [
    {
      "name": "Digital Economy",
      "url": "#"
    },
    {
      "name": "Startups",
      "url": "#"
    },
    {
      "name": "Singapore",
      "url": "#"
    },
    {
      "name": "Keyword",
      "url": "#"
    },
    {
      "name": "Innovation",
      "url": "#"
    }
  ],
  "relatedPosts": [
    {
      "url": "#",
      "title": "TechSkills Accelerator",
      "description": "A Smart Nation of the future, with a rich array of tech products and services, will require different skills. We will need people familiar with tech skills and who are also sensitive to how tech can be applied to improve living.",
      "category": "Grants",
      "industry": "Finance",
      "target": "For Individuals",
      "icon": "icon-individual",
      "color": "orange"
    },
    {
      "url": "#",
      "title": "National Cybersecurity Postgraduate Scholarship",
      "description": "A Smart Nation of the future, with a rich array of tech products and services, will require different skills. We will need people familiar with tech skills and who are also sensitive to how tech can be applied to improve living.",
      "category": "Programmes",
      "industry": "Finance",
      "target": "For Individuals",
      "icon": "icon-individual",
      "color": "blue"
    },
    {
      "url": "#",
      "title": "Industry Preparation for Pre-graduate (iPREP) Programme",
      "description": "A Smart Nation of the future.",
      "category": "Grants",
      "industry": "Finance",
      "target": "For Enterprises",
      "icon": "icon-organisation",
      "color": "pink"
    }
  ],
  "anchorNav": [
    {
      "url": "#",
      "name": "TechSkills Accelerator"
    },
    {
      "url": "#",
      "name": "TechSkills Accelerator 2"
    },
    {
      "url": "#",
      "name": "TechSkills Accelerator 3"
    }
  ]
}
