{
  "pageTitle": "Coding talents Swiftly Discovered",
  "pageDescription": "50 students, 15 apps and plenty of tech talent showcased at the Swift Innovators Summit.",
  "sectionName": "News & Events",
  "breadcrumbs": [
    {
      "name": "News & Events",
      "url": "/standard-landing"
    },
    {
      "name": "Infocomm and Media News",
      "url": "/news-listing"
    }
  ],
  "pageBanner": {
    "isPublication": true,
    "articleDate": "17 December 2018",
    "category": {
      "name": "News",
      "url": "/news-listing"
    },
    "industry": {
      "name": "Finance",
      "url": "/news-listing?industry=finance"
    }
  },
  "tags": [
    {
      "name": "artificial intelligence",
      "url": "#"
    },
    {
      "name": "coding",
      "url": "#"
    },
    {
      "name": "mobile apps",
      "url": "#"
    },
    {
      "name": "talent",
      "url": "#"
    },
    {
      "name": "digital economy",
      "url": "#"
    }
  ],
  "relatedPosts": [
    {
      "url": "/news-detail",
      "title": "TechSkills Accelerator",
      "description": "A Smart Nation of the future, with a rich array of tech products and services, will require different skills. We will need people familiar with tech skills and who are also sensitive to how tech can be applied to improve living.",
      "category": "Grants",
      "industry": "Finance",
      "target": "For Individuals",
      "icon": "icon-individual",
      "color": "orange"
    },
    {
      "url": "/news-detail",
      "title": "National Cybersecurity Postgraduate Scholarship",
      "description": "A Smart Nation of the future, with a rich array of tech products and services, will require different skills. We will need people familiar with tech skills and who are also sensitive to how tech can be applied to improve living.",
      "category": "Programmes",
      "industry": "Finance",
      "target": "For Individuals",
      "icon": "icon-individual",
      "color": "blue"
    },
    {
      "url": "/news-detail",
      "title": "Industry Preparation for Pre-graduate (iPREP) Programme",
      "description": "A Smart Nation of the future.",
      "category": "Grants",
      "industry": "Finance",
      "target": "For Enterprises",
      "icon": "icon-organisation",
      "color": "pink"
    }
  ],
  "nextArticle": {
    "title": "What you need to know about the Singapore Media Festival 2018",
    "url": "/news-listing/about-smf"
  }
}
