{
  "pageTitle": "Home Access",
  "pageDescription": "IMDA drives the growth, competitiveness and innovation of Singapore's information and communication technology (ICT) industry by nurturing local ICT enterprises.",
  "sectionName": "For Community",
  "breadcrumbs": [
    {
      "name": "For Community",
      "url": "/support-the-community"
    },
    {
      "name": "Digital Readiness",
      "url": "/digital-readiness"
    },
    {
      "name": "Get Connected",
      "url": "/programme-detail"
    },
    {
      "name": "Home Access"
    }
  ],
  "pageBanner": {
    "articleDate": "21 Sep 2018",
    "category": {
      "name": "Codes of Practice",
      "url": "#"
    },
    "industry": {
      "name": "Finance",
      "url": "#"
    },
    "target": {
      "name": "For Individuals",
      "url": "#",
      "icon": "icon-individual"
    }
  },
  "tags": [
    {
      "name": "Digital Economy",
      "url": "#"
    },
    {
      "name": "Startups",
      "url": "#"
    },
    {
      "name": "Singapore",
      "url": "#"
    },
    {
      "name": "Keyword",
      "url": "#"
    },
    {
      "name": "Innovation",
      "url": "#"
    }
  ],
  "relatedPosts": [
    {
      "url": "#",
      "title": "TechSkills Accelerator",
      "description": "A Smart Nation of the future, with a rich array of tech products and services, will require different skills. We will need people familiar with tech skills and who are also sensitive to how tech can be applied to improve living.",
      "category": "Grants",
      "industry": "Finance",
      "target": "For Individuals",
      "icon": "icon-individual",
      "color": "orange"
    },
    {
      "url": "#",
      "title": "National Cybersecurity Postgraduate Scholarship",
      "description": "A Smart Nation of the future, with a rich array of tech products and services, will require different skills. We will need people familiar with tech skills and who are also sensitive to how tech can be applied to improve living.",
      "category": "Programmes",
      "industry": "Finance",
      "target": "For Individuals",
      "icon": "icon-individual",
      "color": "blue"
    },
    {
      "url": "#",
      "title": "Industry Preparation for Pre-graduate (iPREP) Programme",
      "description": "A Smart Nation of the future.",
      "category": "Grants",
      "industry": "Finance",
      "target": "For Enterprises",
      "icon": "icon-organisation",
      "color": "pink"
    }
  ]
}
