{
  "pageTitle": "IMDA collaborates with Amazon Web Services to strengthen Innovation in Singapore and Southeast Asia",
  "pageDescription": "Lorem ipsum dolor sit amet consectetur adipisicing elit. Aut officiis quo sint eum perferendis explicabo! Consequatur eveniet sunt, debitis nemo temporibus impedit maxime neque cum id dignissimos sequi nesciunt? Dolore!",
  "breadcrumbs": [
    {
      "name": "Content & News",
      "url": "#"
    },
    {
      "name": "Press releases & speeches",
      "url": "#"
    },
    {
      "name": "IMDA collaborates with Amazon Web Services to strengthen Innovation in Singapore and Southeast Asia"
    }
  ],
  "pageBanner": {
    "articleDate": "14 January 2019",
    "readtime": "5 mins read",
    "date": "23 JAN 2023"
  },
  "tags": [
    {
      "name": "Personal data",
      "url": "#"
    },
    {
      "name": "Telecommunications",
      "url": "#"
    },
    {
      "name": "Consumer Protection",
      "url": "#"
    }
  ],
  "relatedPosts": [
    {
      "url": "#",
      "title": "TechSkills Accelerator",
      "description": "A Smart Nation of the future, with a rich array of tech products and services, will require different skills. We will need people familiar with tech skills and who are also sensitive to how tech can be applied to improve living.",
      "category": "Grants",
      "industry": "Finance",
      "target": "For Individuals",
      "icon": "icon-individual",
      "color": "orange"
    },
    {
      "url": "#",
      "title": "National Cybersecurity Postgraduate Scholarship",
      "description": "A Smart Nation of the future, with a rich array of tech products and services, will require different skills. We will need people familiar with tech skills and who are also sensitive to how tech can be applied to improve living.",
      "category": "Programmes",
      "industry": "Finance",
      "target": "For Individuals",
      "icon": "icon-individual",
      "color": "blue"
    },
    {
      "url": "#",
      "title": "Industry Preparation for Pre-graduate (iPREP) Programme",
      "description": "A Smart Nation of the future.",
      "category": "Grants",
      "industry": "Finance",
      "target": "For Enterprises",
      "icon": "icon-organisation",
      "color": "pink"
    }
  ]
}
