{
  "pageTitle": "Regulation Detail",
  "pageDescription": "Regulation Detail Page",
  "sectionName": "Regulation & Licensing",
  "breadcrumbs": [
    {
      "name": "Regulations & Licensing",
      "url": "/regulation-listing"
    },
    {
      "name": "Regulation Detail"
    }
  ],
  "pageBanner": {
    "articleDate": "21 Sep 2018",
    "category": {
      "name": "Standards and Guidelines",
      "url": "/regulations-listing?category=standards"
    },
    "industry": {
      "name": "Media",
      "url": "/regulations-listing?industry=media"
    },
    "color": "orange"
  },
  "anchorNav": {
    "items": [
      {
        "url": "#overview",
        "name": "Overview"
      },
      {
        "url": "#whoApplies",
        "name": "Who applies?"
      },
      {
        "url": "#howToApply",
        "name": "How to apply?"
      },
      {
        "url": "#fees",
        "name": "Fees"
      },
      {
        "url": "#hotline",
        "name": "Hotline"
      }
    ]
  },
  "tags": [
    {
      "name": "Digital Economy",
      "url": "#"
    },
    {
      "name": "Startups",
      "url": "#"
    },
    {
      "name": "Singapore",
      "url": "#"
    },
    {
      "name": "Keyword",
      "url": "#"
    },
    {
      "name": "Innovation",
      "url": "#"
    }
  ],
  "relatedPosts": [
    {
      "url": "/news-detail",
      "title": "TechSkills Accelerator",
      "description": "A Smart Nation of the future, with a rich array of tech products and services, will require different skills. We will need people familiar with tech skills and who are also sensitive to how tech can be applied to improve living.",
      "category": "Grants",
      "industry": "Finance",
      "target": "For Individuals",
      "icon": "icon-individual",
      "color": "orange"
    },
    {
      "url": "/news-detail",
      "title": "National Cybersecurity Postgraduate Scholarship",
      "description": "A Smart Nation of the future, with a rich array of tech products and services, will require different skills. We will need people familiar with tech skills and who are also sensitive to how tech can be applied to improve living.",
      "category": "Programmes",
      "industry": "Finance",
      "target": "For Individuals",
      "icon": "icon-individual",
      "color": "blue"
    },
    {
      "url": "/news-detail",
      "title": "Industry Preparation for Pre-graduate (iPREP) Programme",
      "description": "A Smart Nation of the future.",
      "category": "Grants",
      "industry": "Finance",
      "target": "For Enterprises",
      "icon": "icon-organisation",
      "color": "pink"
    }
  ],
  "nextArticle": {
    "title": "What you need to know about the Singapore Media Festival 2018",
    "url": "/news-detail"
  }
}
