<svg width="56" height="56" viewBox="0 0 56 56" fill="none" xmlns="http://www.w3.org/2000/svg">
<g filter="url(#filter0_d_1774_134866)">
<path d="M22.0039 32V29.4879C21.9829 28.4983 22.0039 27.1387 23.2021 25.2138C23.4334 24.8984 24.022 24.1959 24.5265 23.9088C25.031 23.6217 25.4514 23.4414 25.5986 23.3871C24.8313 22.7455 23.4229 21.1028 23.6436 18.9499C23.9019 16.4302 25.8508 15.0679 27.8058 15.0027C29.7608 14.9374 31.6212 16.0786 32.1572 18.0038C32.4661 19.113 32.7248 20.8751 31.2113 22.5715L30.5176 23.3871C31.2638 23.8003 32.8446 24.9527 33.3239 26.2577C33.923 27.8889 33.9545 28.7049 33.9861 29.4879C34.0113 30.1143 33.9966 31.2604 33.9861 32" stroke="#262626" stroke-linejoin="round"/>
<circle cx="28" cy="24" r="15.5" stroke="#262626"/>
</g>
<defs>
<filter id="filter0_d_1774_134866" x="0" y="0" width="56" height="56" filterUnits="userSpaceOnUse" color-interpolation-filters="sRGB">
<feFlood flood-opacity="0" result="BackgroundImageFix"/>
<feColorMatrix in="SourceAlpha" type="matrix" values="0 0 0 0 0 0 0 0 0 0 0 0 0 0 0 0 0 0 127 0" result="hardAlpha"/>
<feOffset dy="4"/>
<feGaussianBlur stdDeviation="6"/>
<feComposite in2="hardAlpha" operator="out"/>
<feColorMatrix type="matrix" values="0 0 0 0 0.439216 0 0 0 0 0.184314 0 0 0 0 0.541176 0 0 0 0.25 0"/>
<feBlend mode="normal" in2="BackgroundImageFix" result="effect1_dropShadow_1774_134866"/>
<feBlend mode="normal" in="SourceGraphic" in2="effect1_dropShadow_1774_134866" result="shape"/>
</filter>
</defs>
</svg>
