{
  "totalpages": 10,
  "items": [
    {
      "color": "green",
      "image": "/images/sample_img_1.jpg",
      "provider": "7-Network",
      "title": "COVID-19 BCP Productivity Suite - Employee management platform",
      "contact": "Contact Details",
      "type": "Digital Ordering",
      "url": "https://alibababcp.jetworkflow.com/jet/coronavirus",
      "access": "Free"
    },
    {
      "color": "blue",
      "image": "/images/sample_img_2.jpg",
      "provider": "7-Network",
      "title": "Jet Workflow -  COVID-19 management (Visitor and Contact Management)",
      "contact": "",
      "type": "HR Payroll",
      "url": "https://bcp.jetworkflow.com/jet/coronavirus",
      "access": "Free"
    },
    {
      "color": "green",
      "image": "/images/sample_img_3.jpg",
      "provider": "Adaptive Cloud Systems Pte Ltd",
      "title": "AdaptivePay - Human Resource Management System",
      "contact": "",
      "type": "Digital Ordering",
      "url": "https://adaptivepay.com.sg/covid_19",
      "access": "Supported by PSG"
    },
    {
      "color": "green",
      "image": "",
      "provider": "Acronis Asia",
      "title": "Acronis Files Advanced (File Sync and Share)",
      "contact": "",
      "type": "Digital Ordering",
      "url": "https://www.acronis.com/en-sg/mobility/files-advanced/",
      "access": "Free"
    },
    {
      "color": "blue",
      "image": "",
      "provider": "Alibaba Cloud",
      "title": "E-commerce Solution for Retail",
      "contact": "",
      "type": "HR Payroll",
      "url": "https://www.alibabacloud.com/solutions/ecommerce_retail?spm=a3c0i.13983400.7519294820.10.1686516cEu4vGM",
      "access": "Free"
    },
    {
      "color": "green",
      "image": "",
      "provider": "Alibaba Cloud Singapore",
      "title": "DingTalk - All-in-One Mobile Workplace",
      "contact": "",
      "type": "Digital Ordering",
      "url": "http://www.dingtalk.com/en",
      "access": "Free"
    },
    {
      "color": "green",
      "image": "",
      "provider": "Delegate",
      "title": "Delegate PRO - Help vendors manage their business online (lead generation, CRM)",
      "contact": "",
      "type": "Digital Ordering",
      "url": "https://www.justdelegate.co/forvendors",
      "access": "Free"
    },
    {
      "color": "blue",
      "image": "",
      "provider": "eInvoice.sg",
      "title": "Send and Receive eInvoice based on PEPPOL",
      "contact": "",
      "type": "HR Payroll",
      "url": "https://www.einvoice.sg/",
      "access": "Free"
    },
    {
      "color": "blue",
      "image": "",
      "provider": "Google",
      "title": "G Suite: Google Forms",
      "contact": "",
      "type": "HR Payroll",
      "url": "https://gsuite.google.com/products/forms/",
      "access": "Free"
    }
  ]
}
