{
  "pageTitle": "For Industry",
  "pageDescription": "IMDA drives the growth, competitiveness and innovation of Singapore's information and communication technology (ICT) industry by nurturing local ICT enterprises.",
  "sectionName": "For Industry",
  "pageHeader": {
    "image": "/images/standard/background.jpg",
    "mobileImage": "/images/standard/m-background.jpg"
  },
  "breadcrumbs": [
    {
      "name": "For Industry"
    }
  ],
  "items": [
    {
      "image": "/images/standard/landing-1.jpg",
      "title": "Programmes & Grants",
      "description": "An Act that establishes the IMDA, to provide for its functions and powers, and for matters connected therewith.",
      "url": "/programme-listing?category=programmes|grants&support=organisations"
    },
    {
      "image": "/images/standard/landing-2.jpg",
      "title": "Technology & Innovation",
      "description": "An Act that establishes the IMDA, to provide for its functions and powers, and for matters connected therewith.",
      "url": "/technology-innovation"
    },
    {
      "image": "/images/standard/landing-3.jpg",
      "title": "Sectors",
      "description": "An Act that establishes the IMDA, to provide for its functions and powers, and for matters connected therewith.",
      "url": "/standard-listing"
    },
    {
      "image": "/images/standard/landing-4.jpg",
      "title": "System and Infrastructure",
      "description": "An Act that establishes the IMDA, to provide for its functions and powers, and for matters connected therewith.",
      "url": "/standard-listing"
    },
    {
      "image": "/images/standard/landing-5.jpg",
      "title": "Collaboration and Partnership",
      "description": "An Act that establishes the IMDA, to provide for its functions and powers, and for matters connected therewith.",
      "url": "/detail-page"
    }
  ]
}
