{
  "pageTitle": "Standard Landing Page",
  "pageDescription": "IMDA drives the growth, competitiveness and innovation of Singapore's information and communication technology (ICT) industry by nurturing local ICT enterprises.",
  "sectionName": "Industry Support",
  "pageHeader": {
    "image": "/images/standard/background.jpg",
    "mobileImage": "/images/standard/m-background.jpg"
  },
  "breadcrumbs": [
    {
      "name": "Industry Support"
    }
  ],
  "items": [
    {
      "image": "/images/standard/landing-1.jpg",
      "title": "What we do",
      "description": "An Act that establishes the IMDA, to provide for its functions and powers, and for matters connected therewith.",
      "url": "#"
    },
    {
      "image": "/images/standard/landing-2.jpg",
      "title": "Organisation Structure",
      "description": "An Act that establishes the IMDA, to provide for its functions and powers, and for matters connected therewith.",
      "url": "#"
    },
    {
      "image": "/images/standard/landing-3.jpg",
      "title": "Awards & Certification",
      "description": "An Act that establishes the IMDA, to provide for its functions and powers, and for matters connected therewith.",
      "url": "#"
    },
    {
      "image": "/images/standard/landing-4.jpg",
      "title": "Service Standards",
      "description": "An Act that establishes the IMDA, to provide for its functions and powers, and for matters connected therewith.",
      "url": "#"
    },
    {
      "image": "/images/standard/landing-5.jpg",
      "title": "Corporate Publications",
      "description": "An Act that establishes the IMDA, to provide for its functions and powers, and for matters connected therewith.",
      "url": "#"
    }
  ]
}
