{
  "pageTitle": "Technology & Innovation",
  "pageDescription": "IMDA drives the growth, competitiveness and innovation of Singapore's information and communication technology (ICT) industry by nurturing local ICT enterprises.",
  "sectionName": "For the Industry",
  "pageHeader": {
    "image": "/images/standard/background.jpg",
    "mobileImage": "/images/standard/m-background.jpg",
    "cta": {
      "name": "View Innovative Tech Solutions",
      "url": "/supported-digital-listing?type=solutions"
    }
  },
  "breadcrumbs": [
    {
      "name": "For Industry",
      "url": "/industry-support"
    },
    {
      "name": "Technology & Innovation"
    }
  ],
  "items": [
    {
      "title": "Accreditation@SGD",
      "description": "An Act that establishes the IMDA, to provide for its functions and powers, and for matters connected therewith.",
      "url": "/pixel"
    },
    {
      "title": "SG:D Spark",
      "description": "An Act that establishes the IMDA, to provide for its functions and powers, and for matters connected therewith.",
      "url": "/pixel"
    },
    {
      "title": "Open Innovation Platform",
      "description": "An Act that establishes the IMDA, to provide for its functions and powers, and for matters connected therewith.",
      "url": "/pixel"
    },
    {
      "title": "PIXEL",
      "description": "An Act that establishes the IMDA, to provide for its functions and powers, and for matters connected therewith.",
      "url": "/pixel"
    },
    {
      "title": "Blockchain Challenge",
      "description": "An Act that establishes the IMDA, to provide for its functions and powers, and for matters connected therewith.",
      "url": "/pixel"
    },
    {
      "title": "Nationwide E-invoicing Framework",
      "description": "An Act that establishes the IMDA, to provide for its functions and powers, and for matters connected therewith.",
      "url": "/pixel"
    },
    {
      "title": "Green ICT",
      "description": "An Act that establishes the IMDA, to provide for its functions and powers, and for matters connected therewith.",
      "url": "/pixel"
    }
  ],
  "callToAction": {
    "title": "Lorem ipsum dolor sit",
    "description": "Lorem ipsum dolor sit, amet consectetur adipisicing elit. Dolore, temporibus.",
    "image": "/images/cta-banner.jpg",
    "cta": {
      "url": "/endorsed-companies?type=companies",
      "name": "View innovative SG Startups"
    }
  }
}
