{
  "industries": [
    {
      "value": "media",
      "text": "Media"
    },
    {
      "value": "technology",
      "text": "Technology"
    },
    {
      "value": "telecommunications",
      "text": "Telecommunications"
    },
    {
      "value": "postal",
      "text": "Postal"
    },
    {
      "value": "financial",
      "text": "Financial Services"
    },
    {
      "value": "logistics",
      "text": "Logistics"
    },
    {
      "value": "retail",
      "text": "Retail"
    },
    {
      "value": "security",
      "text": "Security"
    },
    {
      "value": "environmental",
      "text": "Environmental Services"
    },
    {
      "value": "food",
      "text": "Food Services"
    },
    {
      "value": "wholesale",
      "text": "Wholesale Trade"
    },
    {
      "value": "all",
      "text": "All Industries"
    }
  ],
  "categories": {
    "regulations": [
      {
        "value": "regulations",
        "label": "Acts and Regulations"
      },
      {
        "value": "policies",
        "label": "Frameworks and Policies"
      },
      {
        "value": "consultations",
        "label": "Consultations"
      },
      {
        "value": "codes",
        "label": "Codes of Practice & Guidelines"
      },
      {
        "value": "standards",
        "label": "Content Standards & Classification"
      },
      {
        "value": "ict",
        "label": "ICT Standards"
      },
      {
        "value": "cybersecurity",
        "label": "Cyber-Security"
      },
      {
        "value": "licenses",
        "label": "Licenses"
      }
    ],
    "programmes": [
      {
        "value": "programmes",
        "label": "Programmes"
      },
      {
        "value": "grants",
        "label": "Grants"
      },
      {
        "value": "scholarships",
        "label": "Scholarships"
      }
    ]
  }
}
